…
## Exemplo

Os dados podem ser carregados com as funções `brMinisterioSaude()`,
`brasilio()`, `CSSEGISandData()` e `infoGripe()`:

``` r
library(datacovidbr)
# Dados do Ministério da Saúde
est <- brMinisterioSaude()
est
#> # A tibble: 2,214 x 7
#>    regiao estado date       casosNovos casosAcumulados obitosNovos
#>    <chr>  <chr>  <date>          <int>           <int>       <int>
#>  1 Norte  RO     2020-01-30          0               0           0
#>  2 Norte  RO     2020-01-31          0               0           0
#>  3 Norte  RO     2020-02-01          0               0           0
#>  4 Norte  RO     2020-02-02          0               0           0
#>  5 Norte  RO     2020-02-03          0               0           0
#>  6 Norte  RO     2020-02-04          0               0           0
#>  7 Norte  RO     2020-02-05          0               0           0
#>  8 Norte  RO     2020-02-06          0               0           0
#>  9 Norte  RO     2020-02-07          0               0           0
#> 10 Norte  RO     2020-02-08          0               0           0
#> # … with 2,204 more rows, and 1 more variable: obitosAcumulados <int>

# Dados do Brasil.io
mun <- brasilio()
mun
#> # A tibble: 22,803 x 11
#>    date       state city  place_type confirmed deaths is_last estimated_popul…
#>    <date>     <chr> <chr> <chr>          <int>  <int> <lgl>              <int>
#>  1 2020-04-20 AC    "Acr… city              12      0 TRUE               15256
#>  2 2020-04-20 AC    "Buj… city               1      0 TRUE               10266
#>  3 2020-04-20 AC    "Cru… city               5      0 TRUE               88376
#>  4 2020-04-20 AC    "Plá… city              19      1 TRUE               19761
#>  5 2020-04-20 AC    "Por… city               1      0 TRUE               18504
#>  6 2020-04-20 AC    "Rio… city             136      7 TRUE              407319
#>  7 2020-04-20 AC    "Sen… city               2      0 TRUE               23024
#>  8 2020-04-20 AC    ""    state            176      8 TRUE              881935
#>  9 2020-04-20 AL    "Ara… city               1      0 TRUE              231747
#> 10 2020-04-20 AL    "Boc… city               1      0 TRUE               27281
#> # … with 22,793 more rows, and 3 more variables: city_ibge_code <int>,
#> #   confirmed_per_100k_inhabitants <dbl>, death_rate <dbl>

#Dados da CSSEGISandData
wor <- CSSEGISandData()
wor
#> # A tibble: 16,650 x 7
#> # Groups:   Country.Region [185]
#>    Country.Region data         Lat  Long casosAcumulados obitosAcumulado
#>    <chr>          <date>     <dbl> <dbl>           <int>           <int>
#>  1 Afghanistan    2020-01-22    33    65               0               0
#>  2 Afghanistan    2020-01-23    33    65               0               0
#>  3 Afghanistan    2020-01-24    33    65               0               0
#>  4 Afghanistan    2020-01-25    33    65               0               0
#>  5 Afghanistan    2020-01-26    33    65               0               0
#>  6 Afghanistan    2020-01-27    33    65               0               0
#>  7 Afghanistan    2020-01-28    33    65               0               0
#>  8 Afghanistan    2020-01-29    33    65               0               0
#>  9 Afghanistan    2020-01-30    33    65               0               0
#> 10 Afghanistan    2020-01-31    33    65               0               0
#> # … with 16,640 more rows, and 1 more variable: recuperadosAcumulado <int>
```
…
